{"data":[{"id":4158,"name":"Freak on a Leash","imageUrl":null,"artistImageUrl":null,"bio":null,"listeners":6883,"playcount":21575,"lastUpdated":"2025-03-07T16:41:30.818Z"},{"id":4157,"name":"iamjakehill","imageUrl":null,"artistImageUrl":null,"bio":"Jake Hill is an American rapper, singer and songwriter from south Alabama. \nCombining HipHop and metalcore elements, he has amassed a large online\nfollowing by using his own personal hardships and experiences \nas a way to connect with like-minded supporters across the globe. <a href=\"https://www.last.fm/music/iamjakehill\">Read more on Last.fm</a>. User-contributed text is available under the Creative Commons By-SA License; additional terms may apply.","listeners":361691,"playcount":18375352,"lastUpdated":"2025-03-07T16:41:30.368Z"},{"id":4156,"name":"Leyla Blue","imageUrl":null,"artistImageUrl":null,"bio":"Leyla Blue is an American pop and R&B singer and songwriter based in New York. She has made several viral hits and has amassed a large following on TikTok. <a href=\"https://www.last.fm/music/Leyla+Blue\">Read more on Last.fm</a>. User-contributed text is available under the Creative Commons By-SA License; additional terms may apply.","listeners":186966,"playcount":1410719,"lastUpdated":"2025-03-07T16:41:30.038Z"}],"pagination":{"page":1,"limit":3,"total":4158,"totalPages":1386}}